…
sim_results_df = 
  expand_grid(
    n = 30,
    mu = 0:6,
    iter = 1:5000
  ) |> 
  mutate(
    data_df = map2(n, mu, sim_rnorm_data)) |> 
  mutate(t_test_results = map(data_df, sim_t_test)) |> 
  unnest(t_test_results)
  
sim_results_df
```

    ## # A tibble: 35,000 × 12
    ##        n    mu  iter data_df    estimate statistic p.value parameter conf.low
    ##    <dbl> <int> <int> <list>        <dbl>     <dbl>   <dbl>     <dbl>    <dbl>
    ##  1    30     0     1 <dbl [30]>   -1.48     -1.80  0.0826         29   -3.17 
    ##  2    30     0     2 <dbl [30]>   -2.76     -3.15  0.00376        29   -4.55 
    ##  3    30     0     3 <dbl [30]>    0.693     0.775 0.445          29   -1.14 
    ##  4    30     0     4 <dbl [30]>    0.558     0.756 0.456          29   -0.951
    ##  5    30     0     5 <dbl [30]>    0.543     0.600 0.553          29   -1.31 
    ##  6    30     0     6 <dbl [30]>    0.632     0.646 0.523          29   -1.37 
    ##  7    30     0     7 <dbl [30]>    0.724     0.654 0.518          29   -1.54 
    ##  8    30     0     8 <dbl [30]>    0.361     0.349 0.729          29   -1.75 
    ##  9    30     0     9 <dbl [30]>    0.615     0.849 0.403          29   -0.867
    ## 10    30     0    10 <dbl [30]>    0.765     0.837 0.410          29   -1.10 
    ## # ℹ 34,990 more rows
    ## # ℹ 3 more variables: conf.high <dbl>, method <chr>, alternative <chr>
…
